HDL/src/output.vcd
$date
  Fri Aug 25 18:04:54 2023
$end
$version
  GHDL v0
$end
$timescale
  1 fs
$end
$scope module standard $end
$upscope $end
$scope module std_logic_1164 $end
$upscope $end
$scope module numeric_std $end
$upscope $end
$scope module math_real $end
$upscope $end
$scope module parampkg $end
$upscope $end
$scope module iq_memtb $end
$var reg 1 ! clk $end
$var reg 1 " rst $end
$var reg 3 # w_addr_o[2:0] $end
$var reg 3 $ r_addr_o[2:0] $end
$var reg 1 % w_en $end
$var reg 1 & r_en $end
$comment w_data is not handled $end
$var reg 32 ' r_data[31:0] $end
$var reg 3 ( r_addr[2:0] $end
$scope module iq_mem_uut $end
$var reg 1 ) clk $end
$var reg 1 * rst $end
$var reg 3 + w_addr_o[2:0] $end
$var reg 3 , r_addr_o[2:0] $end
$comment w_data is not handled $end
$var reg 32 - r_data[31:0] $end
$var reg 1 . w_en $end
$var reg 1 / r_en $end
$comment fifo is not handled $end
$var reg 3 0 w_addr[2:0] $end
$var reg 3 1 r_addr[2:0] $end
$var reg 2 2 w_blk[1:0] $end
$var reg 2 3 r_blk[1:0] $end
$upscope $end
$upscope $end
$enddefinitions $end
#0
0!
0"
b000 #
b000 $
0%
0&
bUUUUUUUUUUUUUUUUUUUUUUUUUUUUUUUU '
b000 (
0)
0*
b000 +
b000 ,
bUUUUUUUUUUUUUUUUUUUUUUUUUUUUUUUU -
0.
0/
b000 0
b000 1
bUU 2
bUU 3
#5000000
1!
1)
#10000000
0!
0)
#15000000
1!
1)
#20000000
0!
0)
#25000000
1!
1)
#30000000
0!
0)
#35000000
1!
1)
#40000000
0!
0)
#45000000
1!
1)
#50000000
0!
0)
#55000000
1!
1)
#60000000
0!
0)
#65000000
1!
1)
#70000000
0!
0)
#75000000
1!
1)
#80000000
0!
0)
#85000000
1!
1)
#90000000
0!
0)
#95000000
1!
1)
#100000000
0!
1"
0)
1*
b00 2
b00 3
#105000000
1!
1)
#110000000
0!
0"
0)
0*
#115000000
1!
1)
#120000000
0!
0)
#125000000
1!
1)
#130000000
0!
0)
#135000000
1!
1)
#140000000
0!
0)
#145000000
1!
1)
#150000000
0!
0)
#155000000
1!
1)
#160000000
0!
0)
#165000000
1!
1)
#170000000
0!
0)
#175000000
1!
1)
#180000000
0!
0)
#185000000
1!
1)
#190000000
0!
0)
#195000000
1!
1)
#200000000
0!
0)
#205000000
1!
1)
#210000000
0!
1%
0)
1.
#215000000
1!
1)
#220000000
0!
0%
1&
0)
0.
1/
#225000000
1!
b001 $
b11111111111111111111111111111111 '
1)
b001 ,
b11111111111111111111111111111111 -
b001 1
#230000000
0!
0)
#235000000
1!
b010 $
1)
b010 ,
b010 1
#240000000
0!
0&
0)
0/
